%!PS-Adobe-3.0 EPSF-3.0
%%DocumentNeededResources: font Helvetica
%%+ font Helvetica-Bold
%%+ font Helvetica-Oblique
%%+ font Helvetica-BoldOblique
%%+ font Symbol
%%Title: R Graphics Output
%%Creator: R Software
%%Pages: (atend)
%%BoundingBox: 0 0 518 509
%%EndComments
%%BeginProlog
/bp  { gs sRGB gs } def
% begin .ps.prolog
/gs  { gsave } bind def
/gr  { grestore } bind def
/ep  { showpage gr gr } bind def
/m   { moveto } bind def
/l  { rlineto } bind def
/np  { newpath } bind def
/cp  { closepath } bind def
/f   { fill } bind def
/o   { stroke } bind def
/c   { newpath 0 360 arc } bind def
/r   { 4 2 roll moveto 1 copy 3 -1 roll exch 0 exch rlineto 0 rlineto -1 mul 0 exch rlineto closepath } bind def
/p1  { stroke } bind def
/p2  { gsave bg fill grestore newpath } bind def
/p3  { gsave bg fill grestore stroke } bind def
/p6  { gsave bg eofill grestore newpath } bind def
/p7  { gsave bg eofill grestore stroke } bind def
/t   { 5 -2 roll moveto gsave rotate
       1 index stringwidth pop
       mul neg 0 rmoveto show grestore } bind def
/ta  { 4 -2 roll moveto gsave rotate show } bind def
/tb  { 2 -1 roll 0 rmoveto show } bind def
/cl  { grestore gsave newpath 3 index 3 index moveto 1 index
       4 -1 roll lineto  exch 1 index lineto lineto
       closepath clip newpath } bind def
/rgb { setrgbcolor } bind def
/s   { scalefont setfont } bind def
% end   .ps.prolog
/sRGB { [ /CIEBasedABC
          << /DecodeLMN
               [ { dup 0.03928 le
                        {12.92321 div}
                        {0.055 add 1.055 div 2.4 exp }
                     ifelse
                 } bind dup dup
               ]
             /MatrixLMN [0.412457 0.212673 0.019334
                         0.357576 0.715152 0.119192
                         0.180437 0.072175 0.950301]
             /WhitePoint [0.9505 1.0 1.0890]
           >>
         ] setcolorspace } bind def
/srgb { setcolor } bind def
%%IncludeResource: font Helvetica
/Helvetica findfont
dup length dict begin
  {1 index /FID ne {def} {pop pop} ifelse} forall
  /Encoding ISOLatin1Encoding def
  currentdict
  end
/Font1 exch definefont pop
%%IncludeResource: font Helvetica-Bold
/Helvetica-Bold findfont
dup length dict begin
  {1 index /FID ne {def} {pop pop} ifelse} forall
  /Encoding ISOLatin1Encoding def
  currentdict
  end
/Font2 exch definefont pop
%%IncludeResource: font Helvetica-Oblique
/Helvetica-Oblique findfont
dup length dict begin
  {1 index /FID ne {def} {pop pop} ifelse} forall
  /Encoding ISOLatin1Encoding def
  currentdict
  end
/Font3 exch definefont pop
%%IncludeResource: font Helvetica-BoldOblique
/Helvetica-BoldOblique findfont
dup length dict begin
  {1 index /FID ne {def} {pop pop} ifelse} forall
  /Encoding ISOLatin1Encoding def
  currentdict
  end
/Font4 exch definefont pop
%%IncludeResource: font Symbol
/Symbol findfont
dup length dict begin
  {1 index /FID ne {def} {pop pop} ifelse} forall
  currentdict
  end
/Font5 exch definefont pop
%%EndProlog
%%Page: 1 1
bp
/bg { 1 1 1 srgb } def
0.00 0.00 518.25 509.25 r p2
0.00 0.00 518.25 509.25 cl
0.00 0.00 518.25 509.25 cl
0.00 0.00 518.25 509.25 cl
0.00 0.00 518.25 509.25 cl
0.00 0.00 518.25 509.25 cl
0.00 0.00 518.25 509.25 cl
0.00 0.00 518.25 509.25 cl
0.00 0.00 518.25 509.25 cl
0.00 0.00 518.25 509.25 cl
0.00 0.00 518.25 509.25 cl
0.00 0.00 518.25 509.25 cl
0.00 0.00 518.25 509.25 cl
0.00 0.00 518.25 509.25 cl
0.00 0.00 518.25 509.25 cl
0.00 0.00 518.25 509.25 cl
0.00 0.00 518.25 509.25 cl
/bg { 1 1 1 srgb } def
1 1 1 srgb
1.07 setlinewidth
[] 0 setdash
1 setlinecap
1 setlinejoin
10.00 setmiterlimit
0.00 0.00 518.25 509.25 r p3
0.00 0.00 518.25 509.25 cl
33.48 100.68 512.77 503.77 cl
/bg { 1 1 1 srgb } def
33.48 100.68 479.29 403.09 r p2
0.9725 0.4627 0.4275 srgb
2.13 setlinewidth
[] 0 setdash
0 setlinecap
1 setlinejoin
10.00 setmiterlimit
np
42.71 144.59 m
4.69 -3.01 l
4.53 -1.50 l
4.69 -1.51 l
4.54 -1.50 l
4.69 -1.51 l
4.69 -3.01 l
4.54 -3.01 l
4.69 -1.50 l
4.54 1.50 l
4.69 4.52 l
4.69 7.52 l
4.24 4.52 l
4.69 -3.01 l
4.54 -3.01 l
4.69 -3.01 l
4.53 -1.51 l
4.69 -3.01 l
4.69 -3.01 l
4.54 -3.01 l
4.69 -3.01 l
4.54 -4.52 l
4.69 3.01 l
4.69 4.52 l
4.24 7.53 l
4.69 -1.51 l
4.54 -1.50 l
4.69 -3.01 l
4.54 1.50 l
4.69 0 l
4.69 -1.50 l
4.54 -3.01 l
4.69 -1.51 l
4.53 0 l
4.69 4.52 l
4.69 9.03 l
4.24 7.52 l
4.69 1.51 l
4.54 1.50 l
4.69 3.01 l
4.54 3.01 l
4.69 3.01 l
4.69 3.01 l
4.54 0 l
4.69 1.51 l
4.54 -1.51 l
4.69 9.03 l
4.69 10.54 l
4.38 10.54 l
4.69 4.51 l
4.54 0 l
4.69 1.51 l
4.54 4.51 l
4.69 3.01 l
4.69 0 l
4.54 0 l
4.69 0 l
4.54 3.01 l
4.69 9.03 l
4.69 9.03 l
4.24 7.53 l
4.69 -1.51 l
4.53 -4.51 l
4.69 -4.52 l
4.54 -3.01 l
4.69 -3.01 l
4.69 -3.01 l
4.54 -3.01 l
4.69 -3.01 l
4.54 -3.01 l
4.69 6.02 l
4.69 6.02 l
4.24 7.53 l
4.69 -3.01 l
4.54 -3.01 l
4.69 -4.52 l
4.53 -1.50 l
4.69 -3.01 l
4.69 -3.01 l
4.54 -3.01 l
4.69 -1.51 l
4.54 0 l
4.69 6.02 l
4.69 6.02 l
4.24 4.52 l
4.69 -3.01 l
4.54 -3.01 l
4.69 -4.52 l
4.54 -3.01 l
4.69 0 l
4.69 0 l
4.54 -3.01 l
4.69 -6.02 l
4.53 -3.01 l
4.69 3.01 l
4.69 6.02 l
4.39 9.03 l
4.69 6.02 l
4.54 4.52 l
4.69 6.02 l
503.24 233.39 lineto
4.69 9.04 l
4.69 3.01 l
o
0 0.7490 0.7686 srgb
np
33.63 345.61 m
4.69 -4.01 l
4.39 -8.03 l
4.69 -12.04 l
4.53 -11.54 l
4.69 -11.04 l
4.54 -10.54 l
4.69 -7.77 l
4.69 -5.01 l
4.54 -2.25 l
4.69 2.19 l
4.54 6.61 l
4.69 11.05 l
4.69 4.17 l
4.24 -2.72 l
4.69 -9.60 l
4.54 -7.30 l
4.69 -4.99 l
4.53 -2.68 l
4.69 -4.50 l
4.69 -6.32 l
4.54 -8.13 l
4.69 -2.94 l
4.54 2.26 l
4.69 7.45 l
4.69 2.65 l
4.24 -2.15 l
4.69 -6.97 l
4.54 -4.00 l
4.69 -1.04 l
4.54 1.91 l
4.69 0.57 l
4.69 -0.79 l
4.54 -2.15 l
4.69 2.46 l
4.53 7.06 l
4.69 11.65 l
4.69 8.09 l
4.24 4.52 l
4.69 0.95 l
4.54 3.15 l
4.69 5.34 l
4.54 7.54 l
4.69 1.80 l
4.69 -3.93 l
4.54 -9.68 l
4.69 -1.55 l
4.54 6.59 l
4.69 14.71 l
4.69 12.32 l
4.38 9.91 l
4.69 7.52 l
4.54 5.14 l
4.69 2.75 l
4.54 0.37 l
4.69 1.67 l
4.69 2.98 l
4.54 4.29 l
4.69 7.23 l
4.54 10.19 l
4.69 13.13 l
4.69 6.85 l
4.24 0.57 l
4.69 -5.70 l
4.53 -2.54 l
4.69 0.65 l
4.54 3.82 l
4.69 0.66 l
4.69 -2.51 l
4.54 -5.66 l
4.69 -0.60 l
4.54 4.48 l
4.69 9.54 l
4.69 5.56 l
4.24 1.58 l
4.69 -2.41 l
4.54 -2.10 l
4.69 -1.82 l
4.53 -1.52 l
4.69 -2.32 l
4.69 -3.12 l
4.54 -3.91 l
4.69 0.71 l
4.54 5.33 l
4.69 9.97 l
4.69 5.72 l
4.24 1.47 l
4.69 -2.78 l
4.54 -3.03 l
4.69 -3.30 l
4.54 -3.56 l
4.69 -4.84 l
4.69 -6.13 l
4.54 -7.42 l
4.69 -3.30 l
4.53 0.81 l
4.69 4.93 l
4.69 13.76 l
4.39 22.58 l
4.69 31.42 l
494.01 466.61 lineto
4.69 13.82 l
4.54 5.02 l
4.69 -1.53 l
4.69 -8.07 l
o
0.71 setlinewidth
[] 0 setdash
1 setlinecap
33.63 345.61 5.69 c p3
38.32 341.60 5.69 c p3
42.71 333.57 5.69 c p3
47.40 321.53 5.69 c p3
51.93 309.99 5.69 c p3
56.62 298.95 5.69 c p3
61.16 288.41 5.69 c p3
65.85 280.64 5.69 c p3
70.54 275.63 5.69 c p3
75.08 273.38 5.69 c p3
79.77 275.57 5.69 c p3
84.31 282.18 5.69 c p3
89.00 293.23 5.69 c p3
93.69 297.40 5.69 c p3
97.93 294.68 5.69 c p3
102.62 285.08 5.69 c p3
107.16 277.78 5.69 c p3
111.85 272.79 5.69 c p3
116.38 270.11 5.69 c p3
121.07 265.61 5.69 c p3
125.76 259.29 5.69 c p3
130.30 251.16 5.69 c p3
134.99 248.22 5.69 c p3
139.53 250.48 5.69 c p3
144.22 257.93 5.69 c p3
148.91 260.58 5.69 c p3
153.15 258.43 5.69 c p3
157.84 251.46 5.69 c p3
162.38 247.46 5.69 c p3
167.07 246.42 5.69 c p3
171.61 248.33 5.69 c p3
176.30 248.90 5.69 c p3
180.99 248.11 5.69 c p3
185.53 245.96 5.69 c p3
190.22 248.42 5.69 c p3
194.75 255.48 5.69 c p3
199.44 267.13 5.69 c p3
204.13 275.22 5.69 c p3
208.37 279.74 5.69 c p3
213.06 280.69 5.69 c p3
217.60 283.84 5.69 c p3
222.29 289.18 5.69 c p3
226.83 296.72 5.69 c p3
231.52 298.52 5.69 c p3
236.21 294.59 5.69 c p3
240.75 284.91 5.69 c p3
245.44 283.36 5.69 c p3
249.98 289.95 5.69 c p3
254.67 304.66 5.69 c p3
259.36 316.98 5.69 c p3
263.74 326.89 5.69 c p3
268.43 334.41 5.69 c p3
272.97 339.55 5.69 c p3
277.66 342.30 5.69 c p3
282.20 342.67 5.69 c p3
286.89 344.34 5.69 c p3
291.58 347.32 5.69 c p3
296.12 351.61 5.69 c p3
300.81 358.84 5.69 c p3
305.35 369.03 5.69 c p3
310.04 382.16 5.69 c p3
314.73 389.01 5.69 c p3
318.97 389.58 5.69 c p3
323.66 383.88 5.69 c p3
328.19 381.34 5.69 c p3
332.88 381.99 5.69 c p3
337.42 385.81 5.69 c p3
342.11 386.47 5.69 c p3
346.80 383.96 5.69 c p3
351.34 378.30 5.69 c p3
356.03 377.70 5.69 c p3
360.57 382.18 5.69 c p3
365.26 391.72 5.69 c p3
369.95 397.28 5.69 c p3
374.19 398.86 5.69 c p3
378.88 396.45 5.69 c p3
383.42 394.35 5.69 c p3
388.11 392.53 5.69 c p3
392.64 391.01 5.69 c p3
397.33 388.69 5.69 c p3
402.02 385.57 5.69 c p3
406.56 381.66 5.69 c p3
411.25 382.37 5.69 c p3
415.79 387.70 5.69 c p3
420.48 397.67 5.69 c p3
425.17 403.39 5.69 c p3
429.41 404.86 5.69 c p3
434.10 402.08 5.69 c p3
438.64 399.05 5.69 c p3
443.33 395.75 5.69 c p3
447.87 392.19 5.69 c p3
452.56 387.35 5.69 c p3
457.25 381.22 5.69 c p3
461.79 373.80 5.69 c p3
466.48 370.50 5.69 c p3
471.01 371.31 5.69 c p3
475.70 376.24 5.69 c p3
480.39 390.00 5.69 c p3
484.78 412.58 5.69 c p3
489.47 444.00 5.69 c p3
494.01 466.61 5.69 c p3
498.70 480.43 5.69 c p3
503.24 485.45 5.69 c p3
507.93 483.92 5.69 c p3
512.62 475.85 5.69 c p3
0.9725 0.4627 0.4275 srgb
42.71 144.59 5.69 c p3
47.40 141.58 5.69 c p3
51.93 140.08 5.69 c p3
56.62 138.57 5.69 c p3
61.16 137.07 5.69 c p3
65.85 135.56 5.69 c p3
70.54 132.55 5.69 c p3
75.08 129.54 5.69 c p3
79.77 128.04 5.69 c p3
84.31 129.54 5.69 c p3
89.00 134.06 5.69 c p3
93.69 141.58 5.69 c p3
97.93 146.10 5.69 c p3
102.62 143.09 5.69 c p3
107.16 140.08 5.69 c p3
111.85 137.07 5.69 c p3
116.38 135.56 5.69 c p3
121.07 132.55 5.69 c p3
125.76 129.54 5.69 c p3
130.30 126.53 5.69 c p3
134.99 123.52 5.69 c p3
139.53 119.00 5.69 c p3
144.22 122.01 5.69 c p3
148.91 126.53 5.69 c p3
153.15 134.06 5.69 c p3
157.84 132.55 5.69 c p3
162.38 131.05 5.69 c p3
167.07 128.04 5.69 c p3
171.61 129.54 5.69 c p3
176.30 129.54 5.69 c p3
180.99 128.04 5.69 c p3
185.53 125.03 5.69 c p3
190.22 123.52 5.69 c p3
194.75 123.52 5.69 c p3
199.44 128.04 5.69 c p3
204.13 137.07 5.69 c p3
208.37 144.59 5.69 c p3
213.06 146.10 5.69 c p3
217.60 147.60 5.69 c p3
222.29 150.61 5.69 c p3
226.83 153.62 5.69 c p3
231.52 156.63 5.69 c p3
236.21 159.64 5.69 c p3
240.75 159.64 5.69 c p3
245.44 161.15 5.69 c p3
249.98 159.64 5.69 c p3
254.67 168.67 5.69 c p3
259.36 179.21 5.69 c p3
263.74 189.75 5.69 c p3
268.43 194.26 5.69 c p3
272.97 194.26 5.69 c p3
277.66 195.77 5.69 c p3
282.20 200.28 5.69 c p3
286.89 203.29 5.69 c p3
291.58 203.29 5.69 c p3
296.12 203.29 5.69 c p3
300.81 203.29 5.69 c p3
305.35 206.30 5.69 c p3
310.04 215.33 5.69 c p3
314.73 224.36 5.69 c p3
318.97 231.89 5.69 c p3
323.66 230.38 5.69 c p3
328.19 225.87 5.69 c p3
332.88 221.35 5.69 c p3
337.42 218.34 5.69 c p3
342.11 215.33 5.69 c p3
346.80 212.32 5.69 c p3
351.34 209.31 5.69 c p3
356.03 206.30 5.69 c p3
360.57 203.29 5.69 c p3
365.26 209.31 5.69 c p3
369.95 215.33 5.69 c p3
374.19 222.86 5.69 c p3
378.88 219.85 5.69 c p3
383.42 216.84 5.69 c p3
388.11 212.32 5.69 c p3
392.64 210.82 5.69 c p3
397.33 207.81 5.69 c p3
402.02 204.80 5.69 c p3
406.56 201.79 5.69 c p3
411.25 200.28 5.69 c p3
415.79 200.28 5.69 c p3
420.48 206.30 5.69 c p3
425.17 212.32 5.69 c p3
429.41 216.84 5.69 c p3
434.10 213.83 5.69 c p3
438.64 210.82 5.69 c p3
443.33 206.30 5.69 c p3
447.87 203.29 5.69 c p3
452.56 203.29 5.69 c p3
457.25 203.29 5.69 c p3
461.79 200.28 5.69 c p3
466.48 194.26 5.69 c p3
471.01 191.25 5.69 c p3
475.70 194.26 5.69 c p3
480.39 200.28 5.69 c p3
484.78 209.31 5.69 c p3
489.47 215.33 5.69 c p3
494.01 219.85 5.69 c p3
498.70 225.87 5.69 c p3
503.24 233.39 5.69 c p3
507.93 242.43 5.69 c p3
512.62 245.44 5.69 c p3
/Font1 findfont 6 s
0.1020 0.2784 0.4353 srgb
33.63 343.46 (21.3) .5 0 t
38.32 339.44 (21) .5 0 t
42.71 331.42 (20.5) .5 0 t
47.40 319.38 (19.7) .5 0 t
51.93 307.84 (18.9) .5 0 t
56.62 296.80 (18.2) .5 0 t
61.16 286.26 (17.5) .5 0 t
65.85 278.48 (16.9) .5 0 t
70.54 273.47 (16.6) .5 0 t
75.08 271.23 (16.5) .5 0 t
79.77 273.41 (16.6) .5 0 t
84.31 280.03 (17) .5 0 t
89.00 291.08 (17.8) .5 0 t
93.69 295.25 (18.1) .5 0 t
97.93 292.53 (17.9) .5 0 t
102.62 282.92 (17.2) .5 0 t
107.16 275.63 (16.7) .5 0 t
111.85 270.64 (16.4) .5 0 t
116.38 267.95 (16.2) .5 0 t
121.07 263.45 (15.9) .5 0 t
125.76 257.14 (15.5) .5 0 t
130.30 249.00 (15) .5 0 t
134.99 246.06 (14.8) .5 0 t
139.53 248.32 (14.9) .5 0 t
144.22 255.78 (15.4) .5 0 t
148.91 258.43 (15.6) .5 0 t
153.15 256.27 (15.5) .5 0 t
157.84 249.31 (15) .5 0 t
162.38 245.31 (14.7) .5 0 t
167.07 244.26 (14.7) .5 0 t
171.61 246.18 (14.8) .5 0 t
176.30 246.74 (14.8) .5 0 t
180.99 245.95 (14.8) .5 0 t
185.53 243.81 (14.6) .5 0 t
190.22 246.26 (14.8) .5 0 t
194.75 253.32 (15.3) .5 0 t
199.44 264.98 (16) .5 0 t
204.13 273.07 (16.6) .5 0 t
208.37 277.59 (16.9) .5 0 t
213.06 278.54 (16.9) .5 0 t
217.60 281.68 (17.2) .5 0 t
222.29 287.03 (17.5) .5 0 t
226.83 294.57 (18) .5 0 t
231.52 296.37 (18.1) .5 0 t
236.21 292.43 (17.9) .5 0 t
240.75 282.76 (17.2) .5 0 t
245.44 281.21 (17.1) .5 0 t
249.98 287.79 (17.6) .5 0 t
254.67 302.51 (18.5) .5 0 t
259.36 314.82 (19.4) .5 0 t
263.74 324.74 (20) .5 0 t
268.43 332.26 (20.5) .5 0 t
272.97 337.40 (20.9) .5 0 t
277.66 340.15 (21) .5 0 t
282.20 340.51 (21.1) .5 0 t
286.89 342.18 (21.2) .5 0 t
291.58 345.17 (21.4) .5 0 t
296.12 349.45 (21.7) .5 0 t
300.81 356.69 (22.1) .5 0 t
305.35 366.87 (22.8) .5 0 t
310.04 380.01 (23.7) .5 0 t
314.73 386.86 (24.1) .5 0 t
318.97 387.43 (24.2) .5 0 t
323.66 381.72 (23.8) .5 0 t
328.19 379.19 (23.6) .5 0 t
332.88 379.83 (23.7) .5 0 t
337.42 383.65 (23.9) .5 0 t
342.11 384.31 (24) .5 0 t
346.80 381.81 (23.8) .5 0 t
351.34 376.15 (23.4) .5 0 t
356.03 375.55 (23.4) .5 0 t
360.57 380.02 (23.7) .5 0 t
365.26 389.56 (24.3) .5 0 t
369.95 395.12 (24.7) .5 0 t
374.19 396.70 (24.8) .5 0 t
378.88 394.30 (24.6) .5 0 t
383.42 392.19 (24.5) .5 0 t
388.11 390.38 (24.4) .5 0 t
392.64 388.86 (24.3) .5 0 t
397.33 386.54 (24.1) .5 0 t
402.02 383.42 (23.9) .5 0 t
406.56 379.50 (23.7) .5 0 t
411.25 380.21 (23.7) .5 0 t
415.79 385.55 (24.1) .5 0 t
420.48 395.51 (24.7) .5 0 t
425.17 401.23 (25.1) .5 0 t
429.41 402.70 (25.2) .5 0 t
434.10 399.93 (25) .5 0 t
438.64 396.89 (24.8) .5 0 t
443.33 393.60 (24.6) .5 0 t
447.87 390.04 (24.4) .5 0 t
452.56 385.19 (24) .5 0 t
457.25 379.06 (23.6) .5 0 t
461.79 371.64 (23.1) .5 0 t
466.48 368.34 (22.9) .5 0 t
471.01 369.15 (23) .5 0 t
475.70 374.08 (23.3) .5 0 t
480.39 387.84 (24.2) .5 0 t
484.78 410.43 (25.7) .5 0 t
489.47 441.84 (27.8) .5 0 t
494.01 464.46 (29.3) .5 0 t
498.70 478.28 (30.2) .5 0 t
503.24 483.29 (30.5) .5 0 t
507.93 481.77 (30.4) .5 0 t
512.62 473.70 (29.9) .5 0 t
42.71 142.44 (7.9) .5 0 t
47.40 139.43 (7.7) .5 0 t
51.93 137.92 (7.6) .5 0 t
56.62 136.42 (7.5) .5 0 t
61.16 134.91 (7.4) .5 0 t
65.85 133.41 (7.3) .5 0 t
70.54 130.40 (7.1) .5 0 t
75.08 127.39 (6.9) .5 0 t
79.77 125.88 (6.8) .5 0 t
84.31 127.39 (6.9) .5 0 t
89.00 131.90 (7.2) .5 0 t
93.69 139.43 (7.7) .5 0 t
97.93 143.94 (8) .5 0 t
102.62 140.93 (7.8) .5 0 t
107.16 137.92 (7.6) .5 0 t
111.85 134.91 (7.4) .5 0 t
116.38 133.41 (7.3) .5 0 t
121.07 130.40 (7.1) .5 0 t
125.76 127.39 (6.9) .5 0 t
130.30 124.38 (6.7) .5 0 t
134.99 121.37 (6.5) .5 0 t
139.53 116.85 (6.2) .5 0 t
144.22 119.86 (6.4) .5 0 t
148.91 124.38 (6.7) .5 0 t
153.15 131.90 (7.2) .5 0 t
157.84 130.40 (7.1) .5 0 t
162.38 128.89 (7) .5 0 t
167.07 125.88 (6.8) .5 0 t
171.61 127.39 (6.9) .5 0 t
176.30 127.39 (6.9) .5 0 t
180.99 125.88 (6.8) .5 0 t
185.53 122.87 (6.6) .5 0 t
190.22 121.37 (6.5) .5 0 t
194.75 121.37 (6.5) .5 0 t
199.44 125.88 (6.8) .5 0 t
204.13 134.91 (7.4) .5 0 t
208.37 142.44 (7.9) .5 0 t
213.06 143.94 (8) .5 0 t
217.60 145.45 (8.1) .5 0 t
222.29 148.46 (8.3) .5 0 t
226.83 151.47 (8.5) .5 0 t
231.52 154.48 (8.7) .5 0 t
236.21 157.49 (8.9) .5 0 t
240.75 157.49 (8.9) .5 0 t
245.44 158.99 (9) .5 0 t
249.98 157.49 (8.9) .5 0 t
254.67 166.52 (9.5) .5 0 t
259.36 177.06 (10.2) .5 0 t
263.74 187.59 (10.9) .5 0 t
268.43 192.11 (11.2) .5 0 t
272.97 192.11 (11.2) .5 0 t
277.66 193.61 (11.3) .5 0 t
282.20 198.13 (11.6) .5 0 t
286.89 201.14 (11.8) .5 0 t
291.58 201.14 (11.8) .5 0 t
296.12 201.14 (11.8) .5 0 t
300.81 201.14 (11.8) .5 0 t
305.35 204.15 (12) .5 0 t
310.04 213.18 (12.6) .5 0 t
314.73 222.21 (13.2) .5 0 t
318.97 229.74 (13.7) .5 0 t
323.66 228.23 (13.6) .5 0 t
328.19 223.72 (13.3) .5 0 t
332.88 219.20 (13) .5 0 t
337.42 216.19 (12.8) .5 0 t
342.11 213.18 (12.6) .5 0 t
346.80 210.17 (12.4) .5 0 t
351.34 207.16 (12.2) .5 0 t
356.03 204.15 (12) .5 0 t
360.57 201.14 (11.8) .5 0 t
365.26 207.16 (12.2) .5 0 t
369.95 213.18 (12.6) .5 0 t
374.19 220.70 (13.1) .5 0 t
378.88 217.69 (12.9) .5 0 t
383.42 214.68 (12.7) .5 0 t
388.11 210.17 (12.4) .5 0 t
392.64 208.66 (12.3) .5 0 t
397.33 205.65 (12.1) .5 0 t
402.02 202.64 (11.9) .5 0 t
406.56 199.63 (11.7) .5 0 t
411.25 198.13 (11.6) .5 0 t
415.79 198.13 (11.6) .5 0 t
420.48 204.15 (12) .5 0 t
425.17 210.17 (12.4) .5 0 t
429.41 214.68 (12.7) .5 0 t
434.10 211.67 (12.5) .5 0 t
438.64 208.66 (12.3) .5 0 t
443.33 204.15 (12) .5 0 t
447.87 201.14 (11.8) .5 0 t
452.56 201.14 (11.8) .5 0 t
457.25 201.14 (11.8) .5 0 t
461.79 198.13 (11.6) .5 0 t
466.48 192.11 (11.2) .5 0 t
471.01 189.10 (11) .5 0 t
475.70 192.11 (11.2) .5 0 t
480.39 198.13 (11.6) .5 0 t
484.78 207.16 (12.2) .5 0 t
489.47 213.18 (12.6) .5 0 t
494.01 217.69 (12.9) .5 0 t
498.70 223.72 (13.3) .5 0 t
503.24 231.24 (13.8) .5 0 t
507.93 240.27 (14.4) .5 0 t
512.62 243.28 (14.6) .5 0 t
0.00 0.00 518.25 509.25 cl
0.00 0.00 518.25 509.25 cl
0.00 0.00 518.25 509.25 cl
0.00 0.00 518.25 509.25 cl
0.00 0.00 518.25 509.25 cl
0.00 0.00 518.25 509.25 cl
0.00 0.00 518.25 509.25 cl
0.00 0.00 518.25 509.25 cl
0.00 0.00 518.25 509.25 cl
0.00 0.00 518.25 509.25 cl
0.00 0.00 518.25 509.25 cl
0.00 0.00 518.25 509.25 cl
0.00 0.00 518.25 509.25 cl
0 0 0 srgb
1.07 setlinewidth
[] 0 setdash
0 setlinecap
1 setlinejoin
10.00 setmiterlimit
np
33.48 100.68 m
0 403.09 l
o
0.00 0.00 518.25 509.25 cl
0.00 0.00 518.25 509.25 cl
0.00 0.00 518.25 509.25 cl
/Font1 findfont 9 s
0.3020 0.3020 0.3020 srgb
28.55 97.71 (5) 1 0 t
28.55 172.97 (10) 1 0 t
28.55 248.23 (15) 1 0 t
28.55 323.48 (20) 1 0 t
28.55 398.74 (25) 1 0 t
28.55 474.00 (30) 1 0 t
0.00 0.00 518.25 509.25 cl
0.00 0.00 518.25 509.25 cl
0.2000 0.2000 0.2000 srgb
1.07 setlinewidth
[] 0 setdash
0 setlinecap
1 setlinejoin
10.00 setmiterlimit
np
30.74 100.94 m
2.74 0 l
o
np
30.74 176.20 m
2.74 0 l
o
np
30.74 251.46 m
2.74 0 l
o
np
30.74 326.71 m
2.74 0 l
o
np
30.74 401.97 m
2.74 0 l
o
np
30.74 477.23 m
2.74 0 l
o
0.00 0.00 518.25 509.25 cl
0.00 0.00 518.25 509.25 cl
0.00 0.00 518.25 509.25 cl
0.00 0.00 518.25 509.25 cl
0.00 0.00 518.25 509.25 cl
0.00 0.00 518.25 509.25 cl
0.00 0.00 518.25 509.25 cl
0 0 0 srgb
1.07 setlinewidth
[] 0 setdash
0 setlinecap
1 setlinejoin
10.00 setmiterlimit
np
33.48 100.68 m
479.29 0 l
o
0.00 0.00 518.25 509.25 cl
0.00 0.00 518.25 509.25 cl
0.00 0.00 518.25 509.25 cl
0.2000 0.2000 0.2000 srgb
1.07 setlinewidth
[] 0 setdash
0 setlinecap
1 setlinejoin
10.00 setmiterlimit
np
42.71 97.94 m
0 2.74 l
o
np
56.62 97.94 m
0 2.74 l
o
np
70.54 97.94 m
0 2.74 l
o
np
84.31 97.94 m
0 2.74 l
o
np
97.93 97.94 m
0 2.74 l
o
np
111.85 97.94 m
0 2.74 l
o
np
125.76 97.94 m
0 2.74 l
o
np
139.53 97.94 m
0 2.74 l
o
np
153.15 97.94 m
0 2.74 l
o
np
167.07 97.94 m
0 2.74 l
o
np
180.99 97.94 m
0 2.74 l
o
np
194.75 97.94 m
0 2.74 l
o
np
208.37 97.94 m
0 2.74 l
o
np
222.29 97.94 m
0 2.74 l
o
np
236.21 97.94 m
0 2.74 l
o
np
249.98 97.94 m
0 2.74 l
o
np
263.74 97.94 m
0 2.74 l
o
np
277.66 97.94 m
0 2.74 l
o
np
291.58 97.94 m
0 2.74 l
o
np
305.35 97.94 m
0 2.74 l
o
np
318.97 97.94 m
0 2.74 l
o
np
332.88 97.94 m
0 2.74 l
o
np
346.80 97.94 m
0 2.74 l
o
np
360.57 97.94 m
0 2.74 l
o
np
374.19 97.94 m
0 2.74 l
o
np
388.11 97.94 m
0 2.74 l
o
np
402.02 97.94 m
0 2.74 l
o
np
415.79 97.94 m
0 2.74 l
o
np
429.41 97.94 m
0 2.74 l
o
np
443.33 97.94 m
0 2.74 l
o
np
457.25 97.94 m
0 2.74 l
o
np
471.01 97.94 m
0 2.74 l
o
np
484.78 97.94 m
0 2.74 l
o
np
498.70 97.94 m
0 2.74 l
o
np
512.62 97.94 m
0 2.74 l
o
0.00 0.00 518.25 509.25 cl
0.00 0.00 518.25 509.25 cl
/Font1 findfont 9 s
0.3020 0.3020 0.3020 srgb
49.17 95.75 (mar/2012) 1 90 t
63.09 95.75 (jun/2012) 1 90 t
77.01 95.75 (sep/2012) 1 90 t
90.77 95.75 (dic/2012) 1 90 t
104.39 95.75 (mar/2013) 1 90 t
118.31 95.75 (jun/2013) 1 90 t
132.23 95.75 (sep/2013) 1 90 t
145.99 95.75 (dic/2013) 1 90 t
159.61 95.75 (mar/2014) 1 90 t
173.53 95.75 (jun/2014) 1 90 t
187.45 95.75 (sep/2014) 1 90 t
201.22 95.75 (dic/2014) 1 90 t
214.83 95.75 (mar/2015) 1 90 t
228.75 95.75 (jun/2015) 1 90 t
242.67 95.75 (sep/2015) 1 90 t
256.44 95.75 (dic/2015) 1 90 t
270.21 95.75 (mar/2016) 1 90 t
284.12 95.75 (jun/2016) 1 90 t
298.04 95.75 (sep/2016) 1 90 t
311.81 95.75 (dic/2016) 1 90 t
325.43 95.75 (mar/2017) 1 90 t
339.35 95.75 (jun/2017) 1 90 t
353.26 95.75 (sep/2017) 1 90 t
367.03 95.75 (dic/2017) 1 90 t
380.65 95.75 (mar/2018) 1 90 t
394.57 95.75 (jun/2018) 1 90 t
408.49 95.75 (sep/2018) 1 90 t
422.25 95.75 (dic/2018) 1 90 t
435.87 95.75 (mar/2019) 1 90 t
449.79 95.75 (jun/2019) 1 90 t
463.71 95.75 (sep/2019) 1 90 t
477.48 95.75 (dic/2019) 1 90 t
491.24 95.75 (mar/2020) 1 90 t
505.16 95.75 (jun/2020) 1 90 t
519.08 95.75 (sep/2020) 1 90 t
0.00 0.00 518.25 509.25 cl
0.00 0.00 518.25 509.25 cl
0.00 0.00 518.25 509.25 cl
0.00 0.00 518.25 509.25 cl
0.00 0.00 518.25 509.25 cl
0.00 0.00 518.25 509.25 cl
0.00 0.00 518.25 509.25 cl
0.00 0.00 518.25 509.25 cl
/Font1 findfont 11 s
0 0 0 srgb
13.38 302.23 (%) .5 90 t
0.00 0.00 518.25 509.25 cl
0.00 0.00 518.25 509.25 cl
0.00 0.00 518.25 509.25 cl
0.00 0.00 518.25 509.25 cl
0.00 0.00 518.25 509.25 cl
0.00 0.00 518.25 509.25 cl
0.00 0.00 518.25 509.25 cl
0.00 0.00 518.25 509.25 cl
/bg { 1 1 1 srgb } def
128.47 5.48 289.31 28.24 r p2
0.00 0.00 518.25 509.25 cl
0.00 0.00 518.25 509.25 cl
0.00 0.00 518.25 509.25 cl
0.00 0.00 518.25 509.25 cl
/Font1 findfont 11 s
0 0 0 srgb
133.95 15.65 (indicador) 0 0 t
0.00 0.00 518.25 509.25 cl
0.00 0.00 518.25 509.25 cl
0.00 0.00 518.25 509.25 cl
0.00 0.00 518.25 509.25 cl
0.00 0.00 518.25 509.25 cl
0.9725 0.4627 0.4275 srgb
2.13 setlinewidth
[] 0 setdash
0 setlinecap
1 setlinejoin
10.00 setmiterlimit
np
185.78 19.60 m
13.83 0 l
o
0.00 0.00 518.25 509.25 cl
0.00 0.00 518.25 509.25 cl
/bg { 1 1 1 srgb } def
0.9725 0.4627 0.4275 srgb
0.71 setlinewidth
[] 0 setdash
1 setlinecap
1 setlinejoin
10.00 setmiterlimit
192.69 19.60 5.69 c p3
0.00 0.00 518.25 509.25 cl
0.00 0.00 518.25 509.25 cl
0.00 0.00 518.25 509.25 cl
0.00 0.00 518.25 509.25 cl
0 0.7490 0.7686 srgb
2.13 setlinewidth
[] 0 setdash
0 setlinecap
1 setlinejoin
10.00 setmiterlimit
np
303.49 19.60 m
13.82 0 l
o
0.00 0.00 518.25 509.25 cl
0.00 0.00 518.25 509.25 cl
/bg { 1 1 1 srgb } def
0 0.7490 0.7686 srgb
0.71 setlinewidth
[] 0 setdash
1 setlinecap
1 setlinejoin
10.00 setmiterlimit
310.40 19.60 5.69 c p3
0.00 0.00 518.25 509.25 cl
0.00 0.00 518.25 509.25 cl
0.00 0.00 518.25 509.25 cl
0.00 0.00 518.25 509.25 cl
/Font1 findfont 9 s
0 0 0 srgb
206.81 16.37 (T) 0 ta
-1.080 (asa de desocupación) tb gr
0.00 0.00 518.25 509.25 cl
0.00 0.00 518.25 509.25 cl
0.00 0.00 518.25 509.25 cl
0.00 0.00 518.25 509.25 cl
0.00 0.00 518.25 509.25 cl
/Font1 findfont 9 s
0 0 0 srgb
324.52 16.37 (T) 0 ta
-1.080 (asa de sub) tb
-0.180 (utilización) tb gr
0.00 0.00 518.25 509.25 cl
0.00 0.00 518.25 509.25 cl
0.00 0.00 518.25 509.25 cl
0.00 0.00 518.25 509.25 cl
0.00 0.00 518.25 509.25 cl
0.00 0.00 518.25 509.25 cl
0.00 0.00 518.25 509.25 cl
0.00 0.00 518.25 509.25 cl
0.00 0.00 518.25 509.25 cl
0.00 0.00 518.25 509.25 cl
0.00 0.00 518.25 509.25 cl
0.00 0.00 518.25 509.25 cl
0.00 0.00 518.25 509.25 cl
ep
%%Trailer
%%Pages: 1
%%EOF
